%YAML 1.1
%TAG !u! tag:unity3d.com,2011:
--- !u!21 &2100000
Material:
  serializedVersion: 6
  m_ObjectHideFlags: 0
  m_CorrespondingSourceObject: {fileID: 0}
  m_PrefabInstance: {fileID: 0}
  m_PrefabAsset: {fileID: 0}
  m_Name: FAE_Sunshaft
  m_Shader: {fileID: -6465566751694194690, guid: 07f05a6185f494a439b754d9581d8170,
    type: 3}
  m_ShaderKeywords: 
  m_LightmapFlags: 5
  m_EnableInstancingVariants: 0
  m_DoubleSidedGI: 0
  m_CustomRenderQueue: -1
  stringTagMap: {}
  disabledShaderPasses: []
  m_SavedProperties:
    serializedVersion: 3
    m_TexEnvs:
    - _Alpha:
        m_Texture: {fileID: -804463737, guid: 9afc9fffc8d5eb04fbf46f8da66a5439, type: 3}
        m_Scale: {x: 1, y: 1}
        m_Offset: {x: 0, y: 0}
    - _BumpMap:
        m_Texture: {fileID: 0}
        m_Scale: {x: 1, y: 1}
        m_Offset: {x: 0, y: 0}
    - _DetailAlbedoMap:
        m_Texture: {fileID: 0}
        m_Scale: {x: 1, y: 1}
        m_Offset: {x: 0, y: 0}
    - _DetailMask:
        m_Texture: {fileID: 0}
        m_Scale: {x: 1, y: 1}
        m_Offset: {x: 0, y: 0}
    - _DetailNormalMap:
        m_Texture: {fileID: 0}
        m_Scale: {x: 1, y: 1}
        m_Offset: {x: 0, y: 0}
    - _EmissionMap:
        m_Texture: {fileID: 0}
        m_Scale: {x: 1, y: 1}
        m_Offset: {x: 0, y: 0}
    - _MainTex:
        m_Texture: {fileID: 2800000, guid: bef6984f846f11442b4bd5000f44af64, type: 3}
        m_Scale: {x: 1, y: 1}
        m_Offset: {x: 0, y: 0}
    - _MetallicGlossMap:
        m_Texture: {fileID: 0}
        m_Scale: {x: 1, y: 1}
        m_Offset: {x: 0, y: 0}
    - _Normals:
        m_Texture: {fileID: 0}
        m_Scale: {x: 1, y: 1}
        m_Offset: {x: 0, y: 0}
    - _OcclusionMap:
        m_Texture: {fileID: 0}
        m_Scale: {x: 1, y: 1}
        m_Offset: {x: 0, y: 0}
    - _ParallaxMap:
        m_Texture: {fileID: 0}
        m_Scale: {x: 1, y: 1}
        m_Offset: {x: 0, y: 0}
    - _Shadermap:
        m_Texture: {fileID: 0}
        m_Scale: {x: 1, y: 1}
        m_Offset: {x: 0, y: 0}
    - _Texture:
        m_Texture: {fileID: -804463737, guid: 9afc9fffc8d5eb04fbf46f8da66a5439, type: 3}
        m_Scale: {x: 1, y: 1}
        m_Offset: {x: 0, y: 0}
    - _Texture0:
        m_Texture: {fileID: -804463737, guid: 9afc9fffc8d5eb04fbf46f8da66a5439, type: 3}
        m_Scale: {x: 1, y: 1}
        m_Offset: {x: 0, y: 0}
    - _TextureSample1:
        m_Texture: {fileID: 0}
        m_Scale: {x: 1, y: 1}
        m_Offset: {x: 0, y: 0}
    - _texcoord:
        m_Texture: {fileID: 0}
        m_Scale: {x: 1, y: 1}
        m_Offset: {x: 0, y: 0}
    m_Floats:
    - Vector1_1942CF3A: 1
    - Vector1_4AB35C1F: 4
    - Vector1_7564D9D4: 0.5
    - Vector1_786746F4: 0
    - Vector1_98BBEF1: 1
    - Vector1_BE75C478: 32
    - Vector1_C025D8E5: 1
    - Vector1_DBE53451: 3
    - Vector1_DF07556D: 12
    - Vector1_E23F9E57: 0.5
    - Vector1_E796673B: 10
    - Vector1_F3CD828D: 5
    - _BumpScale: 1
    - _Cutoff: 0.5
    - _Depth: 0
    - _DetailNormalMapScale: 1
    - _DstBlend: 0
    - _EdgeFade: 0.1
    - _Emission: 2.37
    - _Fadedistance: 6.1
    - _FlowSpeed: 1
    - _GlossMapScale: 1
    - _Glossiness: 0.8
    - _GlossyReflections: 1
    - _IntersectionFade: 9.92
    - _Intersectionfade: 9.6
    - _InvFade: 1
    - _MaskClipValue: 0.5
    - _Metallic: 0
    - _Metallicness: 0.1
    - _Mode: 0
    - _NormalStrength: 1
    - _OcclusionStrength: 1
    - _Opacity: 0.5
    - _PanningSpeed: 0.23
    - _Parallax: 0.02
    - _RefractionAmount: 0.05
    - _RimRize: 1
    - _RimTiling: 0.025
    - _SmoothnessTextureChannel: 0
    - _SpecularHighlights: 1
    - _SrcBlend: 1
    - _Tiling: 0.5
    - _ToggleSwitch0: 0
    - _UVSec: 0
    - _UseLightColor: 1
    - _ZWrite: 1
    - __dirty: 0
    m_Colors:
    - Color_54B18994: {r: 0.1500617, g: 0.5071051, b: 1.272937, a: 0}
    - Color_80A47FA5: {r: 0.3882353, g: 0.3882353, b: 0.3882353, a: 0}
    - Color_81EC1B4E: {r: 0.8160377, g: 0.9946678, b: 1, a: 0}
    - Color_DA7D120A: {r: 1, g: 1, b: 1, a: 0}
    - Vector2_D652E4B7: {r: 0.1, g: -0.1, b: 0, a: 0}
    - _Color: {r: 1, g: 1, b: 1, a: 0}
    - _EmissionColor: {r: 0, g: 0, b: 0, a: 1}
    - _RimColor: {r: 1, g: 1, b: 1, a: 1}
    - _TintColor: {r: 0.5, g: 0.5, b: 0.5, a: 0.5}
    - _WaterColor: {r: 0.2117647, g: 0.6745098, b: 1, a: 1}
    - _WaterShallowColor: {r: 0, g: 0.9394503, b: 1, a: 1}
